Assigment 03
…
Top results are filler words such as “the” “of” “and”, etc, so I’ll remove them with the anti_join statements

Top Tokens Overall

pubm %>%
  unnest_tokens(token, abstract) %>%
  anti_join(stop_words, by= c("token"="word")) %>% 
  count (token, sort = TRUE)

# A tibble: 19,978 × 2
   token            n
   <chr>        <int>
 1 covid         7275
 2 19            7080
 3 patients      4674
 4 cancer        3999
 5 prostate      3832
 6 disease       2574
 7 pre           2165
 8 eclampsia     2005
 9 preeclampsia  1863
10 treatment     1841
# ℹ 19,968 more rows
…
pubcount <- pubm %>%
  unnest_tokens(token, abstract) %>%
  group_by(term, token) %>% 
  anti_join(stop_words, by= c("token"="word")) %>% 
  count (token, sort = TRUE)

pub5 <-pubcount %>% 
  group_by(term) %>% 
  top_n(5,n) %>% 
  arrange(term)

pub5

# A tibble: 25 × 3
# Groups:   term [5]
   term            token        n
   <chr>           <chr>    <int>
 1 covid           covid     7275
 2 covid           19        7035
 3 covid           patients  2293
 4 covid           disease    943
 5 covid           pandemic   800
 6 cystic fibrosis fibrosis   867
 7 cystic fibrosis cystic     862
 8 cystic fibrosis cf         625
 9 cystic fibrosis patients   586
10 cystic fibrosis disease    400
# ℹ 15 more rows
Observations:

Some of the overall top tokens (I can reason) are mentioned in association with others; for instance, “19” is likely written alongside COVID and “pre” is written alongside “exclampsia”. Similarly, when I group per search term, “pre” pops up again as the top token with preeclampsia, and “cancer” appears as the top token for the search term of prostate cancer. Likely these are appearing as the top tokens because they will always be included given that the abstracts are about these subjects. I can check that with ngrams:

For “19”:

pubm %>%
  unnest_ngrams(ngram, abstract, n = 2) %>% 
  separate(ngram, into= c("word1", "word2"), sep= " ") %>% 
  select(word1, word2, term) %>% 
  group_by(term) %>% 
  arrange(term) %>% 
  filter(word2=="19"& term == "covid") 

# A tibble: 7,035 × 3
# Groups:   term [1]
   word1 word2 term 
   <chr> <chr> <chr>
 1 covid 19    covid
 2 covid 19    covid
 3 covid 19    covid
 4 covid 19    covid
 5 covid 19    covid
 6 covid 19    covid
 7 covid 19    covid
 8 covid 19    covid
 9 covid 19    covid
10 covid 19    covid
# ℹ 7,025 more rows

Clearly, 19 appears most often behind COVID.

For “pre”

pubm %>%
  unnest_ngrams(ngram, abstract, n = 2) %>% 
  separate(ngram, into= c("word1", "word2"), sep= " ") %>% 
  select(word1, word2, term) %>% 
  group_by(term) %>% 
  arrange(term) %>% 
  filter(word1=="pre"& term =="preeclampsia") 

# A tibble: 2,038 × 3
# Groups:   term [1]
   word1 word2     term        
   <chr> <chr>     <chr>       
 1 pre   eclampsia preeclampsia
 2 pre   eclampsia preeclampsia
 3 pre   eclampsia preeclampsia
 4 pre   eclampsia preeclampsia
 5 pre   eclampsia preeclampsia
 6 pre   eclampsia preeclampsia
 7 pre   eclampsia preeclampsia
 8 pre   eclampsia preeclampsia
 9 pre   eclampsia preeclampsia
10 pre   eclampsia preeclampsia
# ℹ 2,028 more rows

Similarly, “pre” appears most often in association with pre-ecclampsia in abstracts generated with preeclampsia as the search term.

Since “pre” appears as a top toke overall also, I can check without selecting by term:

pubm %>%
  unnest_ngrams(ngram, abstract, n = 2) %>% 
  separate(ngram, into= c("word1", "word2"), sep= " ") %>% 
  select(word1, word2) %>% 
  filter(word1=="pre") 

# A tibble: 2,165 × 2
   word1 word2      
   <chr> <chr>      
 1 pre   existing   
 2 pre   existing   
 3 pre   existing   
 4 pre   symptomatic
 5 pre   existing   
 6 pre   existing   
 7 pre   existing   
 8 pre   existing   
 9 pre   existing   
10 pre   existing   
# ℹ 2,155 more rows
…
pubtf <- pubm %>%
  unnest_tokens(text, abstract) %>% 
  count(term, text) %>% 
  bind_tf_idf(text, term, n) %>% 
  arrange(tf_idf)

pubtf<- pubtf %>% 
  group_by(term) %>% 
  top_n(5, tf_idf) %>% 
  arrange(term)
 
pubtf

# A tibble: 25 × 6
# Groups:   term [5]
   term            text            n      tf   idf  tf_idf
   <chr>           <chr>       <int>   <dbl> <dbl>   <dbl>
 1 covid           cov           334 0.00170 1.61  0.00274
 2 covid           sars          372 0.00190 1.61  0.00305
 3 covid           coronavirus   647 0.00330 1.61  0.00531
 4 covid           pandemic      800 0.00408 1.61  0.00657
 5 covid           covid        7275 0.0371  1.61  0.0597 
 6 cystic fibrosis sweat          83 0.00169 1.61  0.00272
 7 cystic fibrosis cftr           86 0.00175 1.61  0.00282
 8 cystic fibrosis cystic        862 0.0175  0.511 0.00896
 9 cystic fibrosis fibrosis      867 0.0176  0.511 0.00901
10 cystic fibrosis cf            625 0.0127  0.916 0.0117 
# ℹ 15 more rows
…
